Domación de Datos
…
Tibbles está diseñado para que no abrume accidentalmente su consola cuando imprime grandes dataframe. Pero a veces necesita más salida que la pantalla predeterminada. Hay algunas opciones que pueden ayudar.

Primero, puede imprimir explícitamente con print() el dataframe y controlar el número de filas (n) y el ancho de la pantalla, width = Inf mostrará todas las columnas:

nycflights13::flights %>% 
  print(n = 10, width = Inf)

## # A tibble: 336,776 x 19
##     year month   day dep_time sched_dep_time dep_delay arr_time sched_arr_time
##    <int> <int> <int>    <int>          <int>     <dbl>    <int>          <int>
##  1  2013     1     1      517            515         2      830            819
##  2  2013     1     1      533            529         4      850            830
##  3  2013     1     1      542            540         2      923            850
##  4  2013     1     1      544            545        -1     1004           1022
##  5  2013     1     1      554            600        -6      812            837
##  6  2013     1     1      554            558        -4      740            728
##  7  2013     1     1      555            600        -5      913            854
##  8  2013     1     1      557            600        -3      709            723
##  9  2013     1     1      557            600        -3      838            846
## 10  2013     1     1      558            600        -2      753            745
##    arr_delay carrier flight tailnum origin dest  air_time distance  hour minute
##        <dbl> <chr>    <int> <chr>   <chr>  <chr>    <dbl>    <dbl> <dbl>  <dbl>
##  1        11 UA        1545 N14228  EWR    IAH        227     1400     5     15
##  2        20 UA        1714 N24211  LGA    IAH        227     1416     5     29
##  3        33 AA        1141 N619AA  JFK    MIA        160     1089     5     40
##  4       -18 B6         725 N804JB  JFK    BQN        183     1576     5     45
##  5       -25 DL         461 N668DN  LGA    ATL        116      762     6      0
##  6        12 UA        1696 N39463  EWR    ORD        150      719     5     58
##  7        19 B6         507 N516JB  EWR    FLL        158     1065     6      0
##  8       -14 EV        5708 N829AS  LGA    IAD         53      229     6      0
##  9        -8 B6          79 N593JB  JFK    MCO        140      944     6      0
## 10         8 AA         301 N3ALAA  LGA    ORD        138      733     6      0
##    time_hour          
##    <dttm>             
##  1 2013-01-01 05:00:00
##  2 2013-01-01 05:00:00
##  3 2013-01-01 05:00:00
##  4 2013-01-01 05:00:00
##  5 2013-01-01 06:00:00
##  6 2013-01-01 05:00:00
##  7 2013-01-01 06:00:00
##  8 2013-01-01 06:00:00
##  9 2013-01-01 06:00:00
## 10 2013-01-01 06:00:00
## # … with 336,766 more rows
…
